name,source,url,destfile,type,covariate,linear_fit
Swaziland case locations,url,https://www.dropbox.com/s/xav5ze1b0u12o0w/CasesJune2016-cleaned-all.csv?dl=1,cases.csv,csv,FALSE,NA
Swaziland population,url,https://www.dropbox.com/s/mkdnvegb0lwq20l/swz_pop.tif?dl=1,swz_pop_moved.tif,raster,FALSE,NA
Swaziland boundary,getData,,GADM-0,shapefile,FALSE,NA
Swaziland distance to rivers,url,https://www.dropbox.com/s/a3cg8tkowiq24bt/DistToRivers.tif?dl=1,DistToRivers.tif,raster,TRUE,TRUE
Swaziland elevation,url,https://www.dropbox.com/s/zxswx91fecpfq3q/elevation_swaziland.tif?dl=1,Elev.tif,raster,TRUE,NA
Swaziland NDWI values,ee,,ndwi,raster,TRUE,NA
Swaziland LST values,ee,,lst,raster,TRUE,NA
Swaziland EVI values,ee,,evi,raster,TRUE,NA
Swaziland PRECIP values,ee,,precip,raster,TRUE,NA
